<?xml version="1.0" encoding="UTF-8"?>
<CustomTab xmlns="http://soap.sforce.com/2006/04/metadata">
    <customObject>true</customObject>
    <description>Custom log object to be used instead of system debug logs</description>
    <mobileReady>false</mobileReady>
    <motif>Custom83: Pencil</motif>
</CustomTab>
